…
Once again, there is no need to use any special theory or functions.  The only point to be 
careful about is the use of 'E' to build expressions from functions 'mean', 'sum' and 'n'.

## Different input and output variable

Now the next challenge presented by Hardley is to vary the name of the output variables based on 
the received expression.  So, if the input expression is 'a', we want our data frame columns to
be named 'mean\_a' and 'sum\_a'.  Now, if the input expression is 'b', columns
should be named 'mean\_b' and 'sum\_b'.

```
mutate(df, mean_a = mean(a), sum_a = sum(a))
#> # A tibble: 5 x 6
#>      g1    g2     a     b mean_a sum_a
#>   <dbl> <dbl> <int> <int>  <dbl> <int>
#> 1     1     1     1     3      3    15
#> 2     1     2     4     2      3    15
#> 3     2     1     2     1      3    15
#> 4     2     2     5     4      3    15
#> # … with 1 more row

mutate(df, mean_b = mean(b), sum_b = sum(b))
#> # A tibble: 5 x 6
#>      g1    g2     a     b mean_b sum_b
#>   <dbl> <dbl> <int> <int>  <dbl> <int>
#> 1     1     1     1     3      3    15
#> 2     1     2     4     2      3    15
#> 3     2     1     2     1      3    15
#> 4     2     2     5     4      3    15
#> # … with 1 more row
```
…
